

 NAS Parallel Benchmarks 3.4 -- BT Benchmark

 No input file inputbt.data. Using compiled defaults
 Size: 1020x1020x1020  (class E)
 Iterations:  250    dt:   0.0000040
 WARNING: Number of active processes:   100
 Total number of processes:   120

