--------------------------------------------------------------------------
Primary job  terminated normally, but 1 process returned
a non-zero exit code. Per user-direction, the job has been aborted.
--------------------------------------------------------------------------
--------------------------------------------------------------------------
mpirun noticed that process rank 24 with PID 10276 on node 10.128.0.118 exited on signal 9 (Killed).
--------------------------------------------------------------------------
